[
  {
    "name": "CVO Antwerpen Campus Hoboken",
    "code": "CH",
    "street": "Distelvinklaan 22",
    "postalCode": "2660",
    "city": "Hoboken",
    "latitude": "51.1771",
    "longitude": "4.3533",
    "phone": "03 830 41 05",
    "directie": {
      "firstName": "Frederic",
      "lastName": "Jaminet",
      "phone": "0486788793"
    },
    "secretariaat": {
      "phone": "0486788793"
    },
    "preventieadviseur": {
      "firstName": "Frederic",
      "lastName": "Jaminet",
      "phone": "0486788793"
    }
  },
  {
    "name": "CVO Antwerpen Campus Craeybeckx",
    "code": "CC",
    "street": "Frank Craeybeckxlaan 22",
    "postalCode": "2100",
    "city": "Deurne",
    "latitude": "51.2145",
    "longitude": "4.47319",
    "phone": "03 360 80 40",
    "directie": {
      "firstName": "Frederic",
      "lastName": "Jaminet",
      "phone": "0486788793"
    },
    "secretariaat": {
      "phone": "0486788793"
    },
    "preventieadviseur": {
      "firstName": "Frederic",
      "lastName": "Jaminet",
      "phone": "0486788793"
    }
  },
  {
    "name": "CVO Antwerpen Campus Ruggeveld",
    "code": "CR",
    "street": "Ruggeveldlaan 471",
    "postalCode": "2100",
    "city": "Deurne",
    "latitude": "51.2267",
    "longitude": "4.47959",
    "phone": "03 328 05 30",
    "directie": {
      "firstName": "Frederic",
      "lastName": "Jaminet",
      "phone": "0486788793"
    },
    "secretariaat": {
      "phone": "0486788793"
    },
    "preventieadviseur": {
      "firstName": "Frederic",
      "lastName": "Jaminet",
      "phone": "0486788793"
    }
  },
  {
    "name": "CVO Antwerpen Campus Braziliëstraat",
    "code": "CB",
    "street": "Braziliëstraat 38",
    "postalCode": "2000",
    "city": "Antwerpen",
    "latitude": "51.2316",
    "longitude": "4.40399",
    "phone": "03 328 05 30",
    "directie": {
      "firstName": "Frederic",
      "lastName": "Jaminet",
      "phone": "0486788793"
    },
    "secretariaat": {
      "phone": "0486788793"
    },
    "preventieadviseur": {
      "firstName": "Frederic",
      "lastName": "Jaminet",
      "phone": "0486788793"
    }
  }
]