{
  "api": "VOS - procedures",
  "title": "Directe verantwoordelijke",
  "code": "PROCDV",
  "role": "DV",
  "updated": "2017-12-08T19:58:42.949Z,
  "procedure": [
    {
      "code": "BM",
      "title": "Brandmelding",
      "version": "0.0",
      "updated": "2010-01-07T19:58:42.949Z",
      "heading": "Bij ontdekking van brand:",
      "step": [
        {
          "title": "Blijf kalm"
        },
        {
          "title": "Verwittig het crisisteam",
          "action": [
            {
              "code": "SMS",
              "phoneNumber": "DV"
            },
            {
              "code": "TEL",
              "phoneNumber": "DV"
            }
          ]
        },
        {
          "title": "Start de noodprocedure op"
        },
        {
          "title": "Bel 112",
          "action": [
            {
              "code": "SMS",
              "phoneNumber": "DV"
            },
            {
              "code": "TEL",
              "phoneNumber": "DV"
            }
          ]
        },
        {
          "title": "En geef volgende informatie door",
          "list": [
            {
              "title": "wie je bent;"
            },
            {
              "title": "wat er gebeurd is;"
            },
            {
              "title": "waar het gebeurd is: precieze plaatsbepaling (gemeente, straatnaam + huisnummer);"
            },
            {
              "title": "aantal slachtoffers (bepaalt mee het aantal ziekenwagens dat gestuurd wordt);"
            },
            {
              "title": "letsels (zo kan de 112 inschatten of er een MUG moet meegestuurd worden);"
            },
            {
              "title": "bijzondere omstandigheden;"
            }
          ]
        },
        {
          "title": "Volg verdere instructies van het crisisteam en de hulpdiensten op."
        }
      ]
    },
    {
      "code": "BREV",
      "title": "Evacuatie in geval van brand",
      "version": "0.0",
      "heading": "Wat te doen?",
      "updated": "2010-01-07T19:58:42.949Z",
      "step": [
        {
          "title": "Blijf kalm!"
        },
        {
          "title": "Laat alles liggen. Neem geen boekentassen mee."
        },
        {
          "title": "Schakel alle apparaten, gas, drijfkracht uit."
        },
        {
          "title": "Onderbreek alle telefoongesprekken, hou buitenlijnen vrij."
        },
        {
          "title": "Sluit de vensters."
        },
        {
          "title": "Controleer of alle aanwezige leerlingen deelnemen aan de evacuatie."
        },
        {
          "title": "Vergeet je leerlingenlijst niet mee te nemen."
        },
        {
          "title": "Laat het licht aan."
        },
        {
          "title": "Verlaat het lokaal,  "
        },
        {
          "title": "Doe de deur dicht (niet afsluiten)."
        },
        {
          "title": "Volg de normale evacuatieweg naar de voorziene verzamelplaats."
        },
        {
          "title": "Bij rookontwikkeling; het hoofd zo dicht mogelijk bij de grond houden."
        },
        {
          "title": "Loop niet."
        },
        {
          "title": "Neem nooit de lift."
        },
        {
          "title": "Indien de weg versperd is, neem een andere vluchtweg (vb. nooduitgang)."
        },
        {
          "title": "Ga met leerlingen naar de voorziene verzamelplaats en keer nooit terug."
        },
        {
          "title": "Stel je leerlingen op en kijk of er geen afwezigen zijn door naamafroeping. Iedere verantwoordelijke dient een actueel gehouden lijst van de leerlingen die hem toevertrouwd zijn, te bezitten."
        },
        {
          "title": "Deel je bevindingen mee aan de directeur en/of zijn afgevaardigde en/of de evacuatieverantwoordelijke."
        },
        {
          "title": "Geef de naam van je klas, het nummer van het ontruimde lokaal en het aantal aanwezige leerlingen (+ afwezigen + vermisten) aan de evacuatieverantwoordelijke en/of de hulpdiensten."
        },
        {
          "title": "Verzamel na controle, mits goedkeuring van de hulpdiensten, met je leerlingen op een veiligere plaats."
        },
        {
          "title": "Blijf bij je leerlingen en wacht verdere instructies af van de hulpdiensten en/of evacuatieverantwoordelijke."
        }
      ]
    },
    {
      "code": "GL",
      "title": "Gaslek",
      "version": "0.0",
      "updated": "2010-01-07T19:58:42.949Z",
      "heading": "Wat te doen bij een gaslek?",
      "step": [
        {
          "title": "Blijf kalm"
        },
        {
          "title": "Verwittig het crisisteam",
          "action": [
            {
              "code": "SMS",
              "phoneNumber": "DV"
            },
            {
              "code": "TEL",
              "phoneNumber": "DV"
            }
          ]
        },
        {
          "title": "Start de noodprocedure op"
        },
        {
          "title": "Bel 112",
          "action": [
            {
              "code": "SMS",
              "phoneNumber": "DV"
            },
            {
              "code": "TEL",
              "phoneNumber": "DV"
            }
          ]
        },
        {
          "title": "En geef volgende informatie door",
          "list": [
            {
              "title": "wie je bent;"
            },
            {
              "title": "wat er gebeurd is;"
            },
            {
              "title": "waar het gebeurd is: precieze plaatsbepaling (gemeente, straatnaam + huisnummer);"
            },
            {
              "title": "aantal slachtoffers (bepaalt mee het aantal ziekenwagens dat gestuurd wordt);"
            },
            {
              "title": "letsels (zo kan de 112 inschatten of er een MUG moet meegestuurd worden);"
            },
            {
              "title": "bijzondere omstandigheden;"
            }
          ]
        },
        {
          "title": "Volg verdere instructies van het crisisteam en de hulpdiensten op."
        }
      ]
    },
    {
      "code": "AEM",
      "title": "Activiteit extra muros",
      "version": "0.0",
      "updated": "2010-01-07T19:58:42.949Z",
      "heading": "Wat te doen bij een ongeval tijdens een activiteit extra muros?",
      "step": [
        {
          "title": "Blijf kalm"
        },
        {
          "title": "Melding",
          "action": [
            {
              "code": "SMS",
              "phoneNumber": "DV"
            },
            {
              "code": "TEL",
              "phoneNumber": "DV"
            }
          ]
        },
        {
          "title": "Alarmeren",
          "action": [
            {
              "code": "TEL",
              "phoneNumber": "HD"
            }
          ]
        },
        {
          "title": "Volg verdere instructies van het crisisteam en de hulpdiensten op"
        }
      ]
    },
    {
      "code": "SG",
      "title": "Schokkende gebeurtenis",
      "version": "0.0",
      "updated": "2010-01-07T19:58:42.949Z",
      "heading": "Wat te doen bij een schokkende gebeurtenis in de onderwijsinstelling?",
      "step": [
        {
          "title": "Blijf kalm"
        },
        {
          "title": "Melding",
          "action": [
            {
              "code": "SMS",
              "phoneNumber": "DV"
            },
            {
              "code": "TEL",
              "phoneNumber": "DV"
            }
          ]
        },
        {
          "title": "Verwittig de hulpdiensten indien binnen de onderwijsinstelling"
        },
        {
          "title": "Interne leerlingenbegeleiding",
          "action": [
            {
              "code": "SMS",
              "phoneNumber": "DV"
            },
            {
              "code": "TEL",
              "phoneNumber": "DV"
            }
          ]
        },
        {
          "title": "CLB",
          "action": [
            {
              "code": "SMS",
              "phoneNumber": "DV"
            },
            {
              "code": "TEL",
              "phoneNumber": "DV"
            }
          ]
        },
        {
          "title": "Preventieadviseur",
          "action": [
            {
              "code": "SMS",
              "phoneNumber": "DV"
            },
            {
              "code": "TEL",
              "phoneNumber": "DV"
            }
          ]
        },
        {
          "title": "Preventieadviseur psychosociale aspecten (externe dienst preventie en bescherming op het werk)",
          "action": [
            {
              "code": "SMS",
              "phoneNumber": "DV"
            },
            {
              "code": "TEL",
              "phoneNumber": "DV"
            }
          ]
        },
        {
          "title": "Dienst slachtofferhulp",
          "action": [
            {
              "code": "SMS",
              "phoneNumber": "DV"
            },
            {
              "code": "TEL",
              "phoneNumber": "DV"
            }
          ]
        },
        {
          "title": "De ouders",
          "action": [
            {
              "code": "SMS",
              "phoneNumber": "DV"
            },
            {
              "code": "TEL",
              "phoneNumber": "DV"
            }
          ]
        },
        {
          "title": "Het crisisteam neemt de nodige beslissingen en acties:",
          "list": [
            {
              "title": "Respecteer de wensen van de melder in verband met de berichtgeving: wie mag op de hoogte gebracht worden en wat mag er gezegd worden?"
            },
            {
              "title": "Verifieer het bericht en verzamel eventueel extra informatie"
            },
            {
              "title": "Bespreek het tijdstip van informatieoverdracht: even wachten of onmiddellijk?"
            }
          ]
        },
        {
          "title": "Het crisisteam bespreekt wie er verantwoordelijk is voor de directe opvang van getuigen en betrokkenen:",
          "list": [
            {
              "title": "Opvang leerling/cursist/interne, personeelslid"
            },
            {
              "title": "Opvang klasgenoten en/of collega’s"
            },
            {
              "title": "Contactopname met ouders en/of familieleden"
            }
          ]
        }
      ]
    }
  ]
}

